[gd_scene load_steps=7 format=2]

[ext_resource path="res://Player/Skull.gd" type="Script" id=1]
[ext_resource path="res://Player/SkullSide.png" type="Texture" id=2]
[ext_resource path="res://Player/hat.png" type="Texture" id=3]
[ext_resource path="res://Player/Hand.tscn" type="PackedScene" id=4]

[sub_resource type="Animation" id=1]
resource_name = "idle"
length = 2.0
loop = true
tracks/0/type = "value"
tracks/0/path = NodePath(".:position")
tracks/0/interp = 2
tracks/0/loop_wrap = true
tracks/0/imported = false
tracks/0/enabled = true
tracks/0/keys = {
"times": PoolRealArray( 0, 1, 2 ),
"transitions": PoolRealArray( 1, 1, 1 ),
"update": 0,
"values": [ Vector2( -1.47018, 22.7879 ), Vector2( -1.47018, 19.92 ), Vector2( -1.47018, 22.7879 ) ]
}

[sub_resource type="Animation" id=2]
resource_name = "idle"
length = 2.0
loop = true
tracks/0/type = "value"
tracks/0/path = NodePath(".:position")
tracks/0/interp = 2
tracks/0/loop_wrap = true
tracks/0/imported = false
tracks/0/enabled = true
tracks/0/keys = {
"times": PoolRealArray( 0, 1, 2 ),
"transitions": PoolRealArray( 1, 1, 1 ),
"update": 0,
"values": [ Vector2( 0, 22.788 ), Vector2( 0, 19.92 ), Vector2( 0, 22.788 ) ]
}

[node name="Skull" type="Node2D"]
position = Vector2( 223.82, 18.05 )
script = ExtResource( 1 )

[node name="Skull" type="Sprite" parent="."]
editor/display_folded = true
position = Vector2( -1.47018, 22.7879 )
texture = ExtResource( 2 )

[node name="AnimationPlayer" type="AnimationPlayer" parent="Skull"]
autoplay = "idle"
anims/idle = SubResource( 1 )

[node name="Hat" type="Sprite" parent="."]
editor/display_folded = true
position = Vector2( -1.47018, 22.7879 )
texture = ExtResource( 3 )

[node name="AnimationPlayer2" type="AnimationPlayer" parent="Hat"]
autoplay = "idle"
anims/idle = SubResource( 2 )

[node name="Hand" parent="." instance=ExtResource( 4 )]

[node name="PointsLabel" type="Label" parent="."]
margin_left = 28.5714
margin_top = -6.71998
margin_right = 68.5714
margin_bottom = 7.28002

[node name="ColorRect" type="ColorRect" parent="PointsLabel"]
modulate = Color( 1, 1, 1, 0.215686 )
show_behind_parent = true
anchor_right = 1.0
anchor_bottom = 1.0
margin_left = -1.0
margin_top = -1.0
margin_right = 1.0
margin_bottom = 1.0
color = Color( 0, 0, 0, 1 )

